{
    "page": 1,
    "total_results": 934,
    "total_pages": 47,
    "results": [{
        "vote_count": 355,
        "id": 339403,
        "video": false,
        "vote_average": 6.6,
        "title": "Baby Driver",
        "popularity": 19.263981,
        "poster_path": "\/mBkOBaxjr7IBHGuQS3sSFeyYTM.jpg",
        "original_language": "en",
        "original_title": "Baby Driver",
        "genre_ids": [28, 80],
        "backdrop_path": "\/RMjc2RAxfsi4lOq7zb8NKB10NT.jpg",
        "adult": false,
        "overview": "After being coerced into working for a crime boss, a young getaway driver finds himself taking part in a heist doomed to fail.",
        "release_date": "2017-06-28"
    }, {
        "vote_count": 1739,
        "id": 295693,
        "video": false,
        "vote_average": 5.9,
        "title": "The Boss Baby",
        "popularity": 10.628654,
        "poster_path": "\/unPB1iyEeTBcKiLg8W083rlViFH.jpg",
        "original_language": "en",
        "original_title": "The Boss Baby",
        "genre_ids": [16, 35, 10751],
        "backdrop_path": "\/8keMlLuzB9XIUBnbdEq5DCqZdHQ.jpg",
        "adult": false,
        "overview": "A story about how a new baby's arrival impacts a family, told from the point of view of a delightfully unreliable narrator, a wildly imaginative 7 year old named Tim.",
        "release_date": "2017-03-23"
    }, {
        "vote_count": 4,
        "id": 348169,
        "video": false,
        "vote_average": 7,
        "title": "Baby",
        "popularity": 1.088442,
        "poster_path": "\/rGAIuCjCvgiHM2Yzv1snZhqvP1p.jpg",
        "original_language": "ta",
        "original_title": "Baby Tamil",
        "genre_ids": [27],
        "backdrop_path": "\/58vMLea030Kub2RLotscWM9h3o1.jpg",
        "adult": false,
        "overview": "A young girl becomes friendly with a ghost but her sister is terrorized by it forcing a split between their parents. Who is the ghost and why is she after the girl?",
        "release_date": "2015-07-03"
    }, {
        "vote_count": 0,
        "id": 33928,
        "video": false,
        "vote_average": 0,
        "title": "Baby",
        "popularity": 1.060379,
        "poster_path": "\/zkLHsomT0KU6DxMaJMmE3VbkBQg.jpg",
        "original_language": "da",
        "original_title": "Baby",
        "genre_ids": [18],
        "backdrop_path": null,
        "adult": false,
        "overview": "Sex, drugs and money are the cornerstones in the lives of these rootles young people living in a big city.  Leni and Nova are sisters and they both long to find and understand love. But it is not easy when you're impulsive and irrational and don't fit in to the established society.\r Nova is a bit more boundary pushing than her sister and one day she takes it a step too far.",
        "release_date": "2003-08-08"
    }, {
        "vote_count": 43,
        "id": 314389,
        "video": false,
        "vote_average": 6.4,
        "title": "Baby",
        "popularity": 1.208216,
        "poster_path": "\/P4kay8niUQz9f14yhTSN7MpSrS.jpg",
        "original_language": "hi",
        "original_title": "Baby",
        "genre_ids": [28, 80, 9648, 53],
        "backdrop_path": "\/3bGRbeTcU6FHHpJsQqSjMRnPHD6.jpg",
        "adult": false,
        "overview": "An elite counter-intelligence unit learns of a plot, masterminded by a maniacal madman. With the clock ticking, it's up to them to track the terrorists' international tentacles and prevent them from striking at the heart of India.",
        "release_date": "2015-01-23"
    }, {
        "vote_count": 2,
        "id": 39068,
        "video": false,
        "vote_average": 5.5,
        "title": "Baby",
        "popularity": 1.202969,
        "poster_path": "\/aqoYPyIyZ2Un48dcbZL9TLUYE6i.jpg",
        "original_language": "en",
        "original_title": "Baby",
        "genre_ids": [80, 18, 53],
        "backdrop_path": "\/Alb15dEKODwSVnciDf5bvtfoAB.jpg",
        "adult": false,
        "overview": "A tragic tale of an Asian youth's gang life in South East Los Angeles, set during the mid 80's to the early 90s.",
        "release_date": "2008-01-01"
    }, {
        "vote_count": 739,
        "id": 805,
        "video": false,
        "vote_average": 7.5,
        "title": "Rosemary's Baby",
        "popularity": 2.602896,
        "poster_path": "\/kqA1pt9ovovArgJZi2Lu4Unf6He.jpg",
        "original_language": "en",
        "original_title": "Rosemary's Baby",
        "genre_ids": [27, 18, 9648],
        "backdrop_path": "\/3THF7D3uPqhV6k7iKsr2EyjqVPK.jpg",
        "adult": false,
        "overview": "A young couple moves into an infamous New York apartment building to start a family. Things become frightening as Rosemary begins to suspect her unborn baby isn't safe around their strange neighbors.",
        "release_date": "1968-06-12"
    }, {
        "vote_count": 2104,
        "id": 70,
        "video": false,
        "vote_average": 7.7,
        "title": "Million Dollar Baby",
        "popularity": 4.435964,
        "poster_path": "\/h4VZKi2Jt4VoBYJmtC4c3bO8KqM.jpg",
        "original_language": "en",
        "original_title": "Million Dollar Baby",
        "genre_ids": [18],
        "backdrop_path": "\/7nGW4MhYQ7sJfp482XkrgqPYQ2S.jpg",
        "adult": false,
        "overview": "Despondent over a painful estrangement from his daughter, trainer Frankie Dunn isn't prepared for boxer Maggie Fitzgerald to enter his life. But Maggie's determined to go pro and to convince Dunn and his cohort to help her.",
        "release_date": "2004-12-15"
    }, {
        "vote_count": 0,
        "id": 108311,
        "video": false,
        "vote_average": 0,
        "title": "Baby",
        "popularity": 1.070911,
        "poster_path": "\/gQwMkj7ZvDtQbfXJroOxcemEvey.jpg",
        "original_language": "en",
        "original_title": "Baby",
        "genre_ids": [18, 10770],
        "backdrop_path": null,
        "adult": false,
        "overview": "A couple finds a baby on their doorstep with a note asking them to temporarily keep it. They take the baby in and care for it as if it were their own. But what if the baby's mom really returns to claim it?",
        "release_date": "2000-10-08"
    }, {
        "vote_count": 0,
        "id": 205663,
        "video": false,
        "vote_average": 0,
        "title": "Baby",
        "popularity": 1.043739,
        "poster_path": "\/38BCexDoNAXPZy51E0UGZowcQ1G.jpg",
        "original_language": "en",
        "original_title": "Baby",
        "genre_ids": [],
        "backdrop_path": null,
        "adult": false,
        "overview": "A teenage boy finds all around him has sexual overtones as he lives a teenage life of drugs and masturbation.",
        "release_date": "2000-07-05"
    }, {
        "vote_count": 189,
        "id": 8780,
        "video": false,
        "vote_average": 5.8,
        "title": "Baby Mama",
        "popularity": 2.508386,
        "poster_path": "\/8YFiUegDjZPuNF1qdENDkcWfXPx.jpg",
        "original_language": "en",
        "original_title": "Baby Mama",
        "genre_ids": [35],
        "backdrop_path": "\/5ZeIjrEbZvLPGB8PVgk3Vrm1aVF.jpg",
        "adult": false,
        "overview": "A successful, single businesswoman who dreams of having a baby discovers she is infertile and hires a working class woman to be her unlikely surrogate.",
        "release_date": "2008-04-23"
    }, {
        "vote_count": 0,
        "id": 146089,
        "video": false,
        "vote_average": 0,
        "title": "Baby",
        "popularity": 1.030231,
        "poster_path": "\/j41XkJgP9O0OomQ8Uyyy5P1I7y5.jpg",
        "original_language": "en",
        "original_title": "Baby",
        "genre_ids": [],
        "backdrop_path": null,
        "adult": false,
        "overview": "A young woman is followed home by a stranger.",
        "release_date": "2010-06-25"
    }, {
        "vote_count": 832,
        "id": 95610,
        "video": false,
        "vote_average": 6.4,
        "title": "Bridget Jones's Baby",
        "popularity": 3.444249,
        "poster_path": "\/j8di6S3mUuFe5Yz8etRG8yG5EeE.jpg",
        "original_language": "en",
        "original_title": "Bridget Jones's Baby",
        "genre_ids": [35],
        "backdrop_path": "\/w9VNDcQet0TUoLRWHg8JbT4QjpW.jpg",
        "adult": false,
        "overview": "Breaking up with Mark Darcy leaves Bridget Jones over 40 and single again. Feeling that she has everything under control, Jones decides to focus on her career as a top news producer. Suddenly, her love life comes back from the dead when she meets a dashing and handsome American named Jack. Things couldn't be better, until Bridget discovers that she is pregnant. Now, the befuddled mom-to-be must figure out if the proud papa is Mark or Jack.",
        "release_date": "2016-09-14"
    }, {
        "vote_count": 46,
        "id": 16161,
        "video": false,
        "vote_average": 7.2,
        "title": "Baby Boy",
        "popularity": 2.462266,
        "poster_path": "\/m7p3qFZsULnvOM5GkFCGCAueeSX.jpg",
        "original_language": "en",
        "original_title": "Baby Boy",
        "genre_ids": [80, 18, 10749],
        "backdrop_path": "\/u33Zr0q2Cf3zz7U8cUmi3F8Oud1.jpg",
        "adult": false,
        "overview": "The story of Jody, a misguided, 20-year-old African-American who is really just a baby boy finally forced-kicking and screaming to face the commitments of real life. Streetwise and jobless, he has not only fathered two children by two different women-Yvette and Peanut but still lives with his own mother. He can't seem to strike a balance or find direction in his chaotic life.",
        "release_date": "2001-06-27"
    }, {
        "vote_count": 0,
        "id": 385781,
        "video": false,
        "vote_average": 0,
        "title": "Baby",
        "popularity": 1.006957,
        "poster_path": null,
        "original_language": "sv",
        "original_title": "Baby",
        "genre_ids": [18],
        "backdrop_path": null,
        "adult": false,
        "overview": "Where the summer night slowly pivots to morning there are meetings of unexpected magic. Baby takes us on a captivating and fast-paced journey through the streets of Stockholm where tomorrow will not be as expected for new acquaintances made at night.",
        "release_date": "2016-07-26"
    }, {
        "vote_count": 1,
        "id": 409659,
        "video": false,
        "vote_average": 5,
        "title": "Baby",
        "popularity": 1.003078,
        "poster_path": "\/wJ73gUkHwlozjn9k7ca7CQLJIlf.jpg",
        "original_language": "en",
        "original_title": "Baby",
        "genre_ids": [],
        "backdrop_path": null,
        "adult": false,
        "overview": "Naomi's got a problem. The vodka in the hotel mini-bar may not be the answer, but it helps her escape a reality she won't face, at least for a little while.",
        "release_date": "2015-01-01"
    }, {
        "vote_count": 2,
        "id": 69991,
        "video": false,
        "vote_average": 7,
        "title": "Baby",
        "popularity": 1.000405,
        "poster_path": "\/7mOldoTaVkviBUjGOJUkPGKh2ex.jpg",
        "original_language": "de",
        "original_title": "Baby",
        "genre_ids": [],
        "backdrop_path": null,
        "adult": false,
        "overview": "Alice is given a parenting exercise at school which changes her understanding of the world in a way she never expected.",
        "release_date": "2003-09-12"
    }, {
        "vote_count": 0,
        "id": 393229,
        "video": false,
        "vote_average": 0,
        "title": "Baby",
        "popularity": 1.000392,
        "poster_path": "\/4nsnv8gekZmTWtR6mZs7pkZsyvI.jpg",
        "original_language": "en",
        "original_title": "Baby",
        "genre_ids": [],
        "backdrop_path": null,
        "adult": false,
        "overview": "I had contrived a scenario in which she ran mindlessly by cages of various animals paying them no heed while they, subject to edited inserts, would appear as excited Stacy observers. I had not fully mastered the tripod and suddenly in the middle of a jerky pan from a drinking fountain the entire tripod is sent flying and never reappears. In fact it has yet to be replaced. Stacy, bored with animals sets out to explore some noises she hears and ends up discovering a merry-go-round.  When I finally catch up and help get her up on one of those huge horses for the first time, I see the look on her face, and I know. There’s the film.  I should be watching not directing.  The unplanned seems to me more interesting always, or at least more possible than the planned.  That’s really the film I’ve been trying to make ever since. - D.A. Pennebaker",
        "release_date": "1954-01-01"
    }, {
        "vote_count": 0,
        "id": 440793,
        "video": false,
        "vote_average": 0,
        "title": "Baby",
        "popularity": 1.000002,
        "poster_path": null,
        "original_language": "en",
        "original_title": "Baby",
        "genre_ids": [],
        "backdrop_path": null,
        "adult": false,
        "overview": "Screwball comedy",
        "release_date": ""
    }, {
        "vote_count": 0,
        "id": 451155,
        "video": false,
        "vote_average": 0,
        "title": "Baby",
        "popularity": 1,
        "poster_path": "\/1h6LF8FHOM2bG8msEASSINx9MZf.jpg",
        "original_language": "de",
        "original_title": "Baby",
        "genre_ids": [],
        "backdrop_path": null,
        "adult": false,
        "overview": "Three friends plan a heist.",
        "release_date": "1984-02-02"
    }]
}
